{
    "swagger": "2.0",
    "info": {
        "description": "SDUVerse app api",
        "title": "SDUVerse API",
        "contact": {},
        "version": "1.0"
    },
    "basePath": "/",
    "paths": {
        "/auth/login": {
            "post": {
                "description": "Login with username and password",
                "consumes": [
                    "application/json"
                ],
                "produces": [
                    "application/json"
                ],
                "tags": [
                    "Auth"
                ],
                "parameters": [
                    {
                        "description": "Username and password",
                        "name": "input",
                        "in": "body",
                        "required": true,
                        "schema": {
                            "$ref": "#/definitions/auth.LoginRequest"
                        }
                    }
                ],
                "responses": {
                    "200": {
                        "description": "OK",
                        "schema": {}
                    },
                    "400": {
                        "description": "Bad Request",
                        "schema": {}
                    },
                    "401": {
                        "description": "Unauthorized",
                        "schema": {}
                    }
                }
            }
        },
        "/auth/signup": {
            "post": {
                "description": "Register a new user",
                "consumes": [
                    "application/json"
                ],
                "produces": [
                    "application/json"
                ],
                "tags": [
                    "Auth"
                ],
                "parameters": [
                    {
                        "description": "User details",
                        "name": "input",
                        "in": "body",
                        "required": true,
                        "schema": {
                            "$ref": "#/definitions/models.User"
                        }
                    }
                ],
                "responses": {
                    "201": {
                        "description": "Created",
                        "schema": {
                            "$ref": "#/definitions/models.User"
                        }
                    },
                    "400": {
                        "description": "Bad Request",
                        "schema": {}
                    },
                    "409": {
                        "description": "Conflict",
                        "schema": {}
                    }
                }
            }
        },
        "/comments": {
            "get": {
                "description": "Get all comments",
                "produces": [
                    "application/json"
                ],
                "tags": [
                    "comments"
                ],
                "responses": {
                    "200": {
                        "description": "OK",
                        "schema": {
                            "type": "array",
                            "items": {
                                "$ref": "#/definitions/models.Comment"
                            }
                        }
                    },
                    "500": {
                        "description": "Internal Server Error",
                        "schema": {
                            "$ref": "#/definitions/models.ErrorResponse"
                        }
                    }
                }
            },
            "post": {
                "description": "Create a new comment",
                "consumes": [
                    "multipart/form-data"
                ],
                "produces": [
                    "application/json"
                ],
                "tags": [
                    "comments"
                ],
                "parameters": [
                    {
                        "description": "Comment details",
                        "name": "input",
                        "in": "body",
                        "required": true,
                        "schema": {
                            "$ref": "#/definitions/models.Comment"
                        }
                    }
                ],
                "responses": {
                    "201": {
                        "description": "Created",
                        "schema": {
                            "$ref": "#/definitions/models.Comment"
                        }
                    },
                    "400": {
                        "description": "Bad Request",
                        "schema": {
                            "$ref": "#/definitions/models.ErrorResponse"
                        }
                    },
                    "500": {
                        "description": "Internal Server Error",
                        "schema": {
                            "$ref": "#/definitions/models.ErrorResponse"
                        }
                    }
                }
            }
        },
        "/comments/posts/{post_id}": {
            "get": {
                "description": "Get comments by post ID",
                "produces": [
                    "application/json"
                ],
                "tags": [
                    "comments"
                ],
                "parameters": [
                    {
                        "type": "integer",
                        "description": "Post ID",
                        "name": "post_id",
                        "in": "path",
                        "required": true
                    }
                ],
                "responses": {
                    "200": {
                        "description": "OK",
                        "schema": {
                            "type": "array",
                            "items": {
                                "$ref": "#/definitions/models.Comment"
                            }
                        }
                    },
                    "400": {
                        "description": "Bad Request",
                        "schema": {
                            "$ref": "#/definitions/models.ErrorResponse"
                        }
                    },
                    "500": {
                        "description": "Internal Server Error",
                        "schema": {
                            "$ref": "#/definitions/models.ErrorResponse"
                        }
                    }
                }
            }
        },
        "/comments/users/{user_id}": {
            "get": {
                "description": "Get comments by user ID",
                "produces": [
                    "application/json"
                ],
                "tags": [
                    "comments"
                ],
                "parameters": [
                    {
                        "type": "integer",
                        "description": "User ID",
                        "name": "user_id",
                        "in": "path",
                        "required": true
                    }
                ],
                "responses": {
                    "200": {
                        "description": "OK",
                        "schema": {
                            "type": "array",
                            "items": {
                                "$ref": "#/definitions/models.Comment"
                            }
                        }
                    },
                    "400": {
                        "description": "Bad Request",
                        "schema": {
                            "$ref": "#/definitions/models.ErrorResponse"
                        }
                    },
                    "500": {
                        "description": "Internal Server Error",
                        "schema": {
                            "$ref": "#/definitions/models.ErrorResponse"
                        }
                    }
                }
            }
        },
        "/comments/{id}": {
            "get": {
                "description": "Get a comment by its ID",
                "produces": [
                    "application/json"
                ],
                "tags": [
                    "comments"
                ],
                "parameters": [
                    {
                        "type": "string",
                        "description": "Comment ID",
                        "name": "id",
                        "in": "path",
                        "required": true
                    }
                ],
                "responses": {
                    "200": {
                        "description": "OK",
                        "schema": {
                            "$ref": "#/definitions/models.Comment"
                        }
                    },
                    "400": {
                        "description": "Bad Request",
                        "schema": {
                            "$ref": "#/definitions/models.ErrorResponse"
                        }
                    },
                    "500": {
                        "description": "Internal Server Error",
                        "schema": {
                            "$ref": "#/definitions/models.ErrorResponse"
                        }
                    }
                }
            },
            "put": {
                "description": "Update a comment by its ID",
                "consumes": [
                    "application/json"
                ],
                "produces": [
                    "application/json"
                ],
                "tags": [
                    "comments"
                ],
                "parameters": [
                    {
                        "type": "string",
                        "description": "Comment ID",
                        "name": "id",
                        "in": "path",
                        "required": true
                    },
                    {
                        "description": "Updated comment details",
                        "name": "input",
                        "in": "body",
                        "required": true,
                        "schema": {
                            "$ref": "#/definitions/models.Comment"
                        }
                    }
                ],
                "responses": {
                    "200": {
                        "description": "OK"
                    },
                    "400": {
                        "description": "Bad Request",
                        "schema": {
                            "$ref": "#/definitions/models.ErrorResponse"
                        }
                    },
                    "500": {
                        "description": "Internal Server Error",
                        "schema": {
                            "$ref": "#/definitions/models.ErrorResponse"
                        }
                    }
                }
            },
            "delete": {
                "description": "Delete a comment by its ID",
                "tags": [
                    "comments"
                ],
                "parameters": [
                    {
                        "type": "string",
                        "description": "Comment ID",
                        "name": "id",
                        "in": "path",
                        "required": true
                    }
                ],
                "responses": {
                    "200": {
                        "description": "OK"
                    },
                    "400": {
                        "description": "Bad Request",
                        "schema": {
                            "$ref": "#/definitions/models.ErrorResponse"
                        }
                    },
                    "500": {
                        "description": "Internal Server Error",
                        "schema": {
                            "$ref": "#/definitions/models.ErrorResponse"
                        }
                    }
                }
            }
        },
        "/posts": {
            "get": {
                "description": "Get all posts",
                "produces": [
                    "application/json"
                ],
                "tags": [
                    "posts"
                ],
                "responses": {
                    "200": {
                        "description": "OK",
                        "schema": {
                            "type": "array",
                            "items": {
                                "$ref": "#/definitions/models.Post"
                            }
                        }
                    },
                    "500": {
                        "description": "Internal Server Error",
                        "schema": {
                            "$ref": "#/definitions/models.ErrorResponse"
                        }
                    }
                }
            },
            "post": {
                "description": "Create a new post",
                "consumes": [
                    "application/json"
                ],
                "produces": [
                    "application/json"
                ],
                "tags": [
                    "posts"
                ],
                "parameters": [
                    {
                        "description": "Post details",
                        "name": "input",
                        "in": "body",
                        "required": true,
                        "schema": {
                            "$ref": "#/definitions/models.Post"
                        }
                    }
                ],
                "responses": {
                    "201": {
                        "description": "Created",
                        "schema": {
                            "$ref": "#/definitions/models.Post"
                        }
                    },
                    "400": {
                        "description": "Bad Request",
                        "schema": {
                            "$ref": "#/definitions/models.ErrorResponse"
                        }
                    },
                    "500": {
                        "description": "Internal Server Error",
                        "schema": {
                            "$ref": "#/definitions/models.ErrorResponse"
                        }
                    }
                }
            }
        },
        "/posts/post": {
            "post": {
                "description": "Create a new user with image",
                "consumes": [
                    "multipart/form-data"
                ],
                "produces": [
                    "application/json"
                ],
                "tags": [
                    "posts"
                ],
                "parameters": [
                    {
                        "description": "Posting news",
                        "name": "input",
                        "in": "body",
                        "required": true,
                        "schema": {
                            "$ref": "#/definitions/models.Post"
                        }
                    }
                ],
                "responses": {
                    "201": {
                        "description": "Created",
                        "schema": {
                            "$ref": "#/definitions/models.User"
                        }
                    },
                    "400": {
                        "description": "Bad Request",
                        "schema": {
                            "$ref": "#/definitions/models.ErrorResponse"
                        }
                    },
                    "500": {
                        "description": "Internal Server Error",
                        "schema": {
                            "$ref": "#/definitions/models.ErrorResponse"
                        }
                    }
                }
            }
        },
        "/posts/{id}": {
            "get": {
                "description": "Get a post by its ID",
                "produces": [
                    "application/json"
                ],
                "tags": [
                    "posts"
                ],
                "parameters": [
                    {
                        "type": "string",
                        "description": "Post ID",
                        "name": "id",
                        "in": "path",
                        "required": true
                    }
                ],
                "responses": {
                    "200": {
                        "description": "OK",
                        "schema": {
                            "$ref": "#/definitions/models.Post"
                        }
                    },
                    "400": {
                        "description": "Bad Request",
                        "schema": {
                            "$ref": "#/definitions/models.ErrorResponse"
                        }
                    }
                }
            },
            "put": {
                "description": "Update a post by its ID",
                "consumes": [
                    "application/json"
                ],
                "produces": [
                    "application/json"
                ],
                "tags": [
                    "posts"
                ],
                "parameters": [
                    {
                        "type": "integer",
                        "description": "Post ID",
                        "name": "id",
                        "in": "path",
                        "required": true
                    },
                    {
                        "description": "Updated post details",
                        "name": "input",
                        "in": "body",
                        "required": true,
                        "schema": {
                            "$ref": "#/definitions/models.Post"
                        }
                    }
                ],
                "responses": {
                    "200": {
                        "description": "OK"
                    },
                    "400": {
                        "description": "Bad Request",
                        "schema": {
                            "$ref": "#/definitions/models.ErrorResponse"
                        }
                    },
                    "500": {
                        "description": "Internal Server Error",
                        "schema": {
                            "$ref": "#/definitions/models.ErrorResponse"
                        }
                    }
                }
            },
            "delete": {
                "description": "Delete a post by its ID",
                "tags": [
                    "posts"
                ],
                "parameters": [
                    {
                        "type": "string",
                        "description": "Post ID",
                        "name": "id",
                        "in": "path",
                        "required": true
                    }
                ],
                "responses": {
                    "200": {
                        "description": "OK"
                    },
                    "400": {
                        "description": "Bad Request",
                        "schema": {
                            "$ref": "#/definitions/models.ErrorResponse"
                        }
                    },
                    "500": {
                        "description": "Internal Server Error",
                        "schema": {
                            "$ref": "#/definitions/models.ErrorResponse"
                        }
                    }
                }
            }
        },
        "/services/books": {
            "get": {
                "description": "Get all Books",
                "produces": [
                    "application/json"
                ],
                "tags": [
                    "services"
                ],
                "responses": {
                    "201": {
                        "description": "Created",
                        "schema": {
                            "$ref": "#/definitions/models.Housing"
                        }
                    },
                    "400": {
                        "description": "Bad Request",
                        "schema": {
                            "$ref": "#/definitions/models.ErrorResponse"
                        }
                    },
                    "500": {
                        "description": "Internal Server Error",
                        "schema": {
                            "$ref": "#/definitions/models.ErrorResponse"
                        }
                    }
                }
            },
            "post": {
                "description": "Create a new book",
                "consumes": [
                    "multipart/form-data"
                ],
                "produces": [
                    "application/json"
                ],
                "tags": [
                    "services"
                ],
                "parameters": [
                    {
                        "description": "LostAndFoundItem details",
                        "name": "input",
                        "in": "body",
                        "required": true,
                        "schema": {
                            "$ref": "#/definitions/models.Books"
                        }
                    }
                ],
                "responses": {
                    "201": {
                        "description": "Created",
                        "schema": {
                            "$ref": "#/definitions/models.Books"
                        }
                    },
                    "400": {
                        "description": "Bad Request",
                        "schema": {
                            "$ref": "#/definitions/models.ErrorResponse"
                        }
                    },
                    "500": {
                        "description": "Internal Server Error",
                        "schema": {
                            "$ref": "#/definitions/models.ErrorResponse"
                        }
                    }
                }
            }
        },
        "/services/books/{id}": {
            "get": {
                "description": "Get book by id",
                "produces": [
                    "application/json"
                ],
                "tags": [
                    "services"
                ],
                "parameters": [
                    {
                        "type": "string",
                        "description": "Item ID",
                        "name": "id",
                        "in": "path",
                        "required": true
                    }
                ],
                "responses": {
                    "201": {
                        "description": "Created",
                        "schema": {
                            "$ref": "#/definitions/models.Housing"
                        }
                    },
                    "400": {
                        "description": "Bad Request",
                        "schema": {
                            "$ref": "#/definitions/models.ErrorResponse"
                        }
                    },
                    "500": {
                        "description": "Internal Server Error",
                        "schema": {
                            "$ref": "#/definitions/models.ErrorResponse"
                        }
                    }
                }
            }
        },
        "/services/dormitory": {
            "post": {
                "description": "Create a new dormitory",
                "consumes": [
                    "application/json"
                ],
                "produces": [
                    "application/json"
                ],
                "tags": [
                    "services"
                ],
                "parameters": [
                    {
                        "description": "Dormitory details",
                        "name": "input",
                        "in": "body",
                        "required": true,
                        "schema": {
                            "$ref": "#/definitions/models.Dormitory"
                        }
                    }
                ],
                "responses": {
                    "201": {
                        "description": "Created",
                        "schema": {
                            "$ref": "#/definitions/models.Dormitory"
                        }
                    },
                    "400": {
                        "description": "Bad Request",
                        "schema": {
                            "$ref": "#/definitions/models.ErrorResponse"
                        }
                    },
                    "500": {
                        "description": "Internal Server Error",
                        "schema": {
                            "$ref": "#/definitions/models.ErrorResponse"
                        }
                    }
                }
            }
        },
        "/services/housing": {
            "get": {
                "description": "Create a new dormitory",
                "produces": [
                    "application/json"
                ],
                "tags": [
                    "services"
                ],
                "responses": {
                    "201": {
                        "description": "Created",
                        "schema": {
                            "$ref": "#/definitions/models.Housing"
                        }
                    },
                    "400": {
                        "description": "Bad Request",
                        "schema": {
                            "$ref": "#/definitions/models.ErrorResponse"
                        }
                    },
                    "500": {
                        "description": "Internal Server Error",
                        "schema": {
                            "$ref": "#/definitions/models.ErrorResponse"
                        }
                    }
                }
            },
            "post": {
                "description": "Create a new housing",
                "consumes": [
                    "multipart/form-data"
                ],
                "produces": [
                    "application/json"
                ],
                "tags": [
                    "services"
                ],
                "parameters": [
                    {
                        "description": "LostAndFoundItem details",
                        "name": "input",
                        "in": "body",
                        "required": true,
                        "schema": {
                            "$ref": "#/definitions/models.Housing"
                        }
                    }
                ],
                "responses": {
                    "201": {
                        "description": "Created",
                        "schema": {
                            "$ref": "#/definitions/models.Housing"
                        }
                    },
                    "400": {
                        "description": "Bad Request",
                        "schema": {
                            "$ref": "#/definitions/models.ErrorResponse"
                        }
                    },
                    "500": {
                        "description": "Internal Server Error",
                        "schema": {
                            "$ref": "#/definitions/models.ErrorResponse"
                        }
                    }
                }
            }
        },
        "/services/housing/{id}": {
            "get": {
                "description": "Create a new dormitory",
                "produces": [
                    "application/json"
                ],
                "tags": [
                    "services"
                ],
                "parameters": [
                    {
                        "type": "string",
                        "description": "Item ID",
                        "name": "id",
                        "in": "path",
                        "required": true
                    }
                ],
                "responses": {
                    "201": {
                        "description": "Created",
                        "schema": {
                            "$ref": "#/definitions/models.Housing"
                        }
                    },
                    "400": {
                        "description": "Bad Request",
                        "schema": {
                            "$ref": "#/definitions/models.ErrorResponse"
                        }
                    },
                    "500": {
                        "description": "Internal Server Error",
                        "schema": {
                            "$ref": "#/definitions/models.ErrorResponse"
                        }
                    }
                }
            }
        },
        "/services/lostandfound": {
            "get": {
                "description": "Create a new dormitory",
                "produces": [
                    "application/json"
                ],
                "tags": [
                    "services"
                ],
                "responses": {
                    "201": {
                        "description": "Created",
                        "schema": {
                            "$ref": "#/definitions/models.LostAndFoundItem"
                        }
                    },
                    "400": {
                        "description": "Bad Request",
                        "schema": {
                            "$ref": "#/definitions/models.ErrorResponse"
                        }
                    },
                    "500": {
                        "description": "Internal Server Error",
                        "schema": {
                            "$ref": "#/definitions/models.ErrorResponse"
                        }
                    }
                }
            },
            "post": {
                "description": "Create a new dormitory",
                "consumes": [
                    "multipart/form-data"
                ],
                "produces": [
                    "application/json"
                ],
                "tags": [
                    "services"
                ],
                "parameters": [
                    {
                        "description": "Lost And Found details",
                        "name": "input",
                        "in": "body",
                        "required": true,
                        "schema": {
                            "$ref": "#/definitions/models.LostAndFoundItem"
                        }
                    }
                ],
                "responses": {
                    "201": {
                        "description": "Created",
                        "schema": {
                            "$ref": "#/definitions/models.LostAndFoundItem"
                        }
                    },
                    "400": {
                        "description": "Bad Request",
                        "schema": {
                            "$ref": "#/definitions/models.ErrorResponse"
                        }
                    },
                    "500": {
                        "description": "Internal Server Error",
                        "schema": {
                            "$ref": "#/definitions/models.ErrorResponse"
                        }
                    }
                }
            }
        },
        "/services/lostandfound/{id}": {
            "get": {
                "description": "Get LostAndFound item by id",
                "produces": [
                    "application/json"
                ],
                "tags": [
                    "services"
                ],
                "parameters": [
                    {
                        "type": "string",
                        "description": "Item ID",
                        "name": "id",
                        "in": "path",
                        "required": true
                    }
                ],
                "responses": {
                    "201": {
                        "description": "Created",
                        "schema": {
                            "$ref": "#/definitions/models.LostAndFoundItem"
                        }
                    },
                    "400": {
                        "description": "Bad Request",
                        "schema": {
                            "$ref": "#/definitions/models.ErrorResponse"
                        }
                    },
                    "500": {
                        "description": "Internal Server Error",
                        "schema": {
                            "$ref": "#/definitions/models.ErrorResponse"
                        }
                    }
                }
            }
        },
        "/users": {
            "get": {
                "description": "Get all users",
                "produces": [
                    "application/json"
                ],
                "tags": [
                    "users"
                ],
                "responses": {
                    "200": {
                        "description": "OK",
                        "schema": {
                            "type": "array",
                            "items": {
                                "$ref": "#/definitions/models.User"
                            }
                        }
                    },
                    "500": {
                        "description": "Internal Server Error",
                        "schema": {
                            "$ref": "#/definitions/models.ErrorResponse"
                        }
                    }
                }
            },
            "post": {
                "description": "Create a new user",
                "consumes": [
                    "application/json"
                ],
                "produces": [
                    "application/json"
                ],
                "tags": [
                    "users"
                ],
                "parameters": [
                    {
                        "description": "User details",
                        "name": "input",
                        "in": "body",
                        "required": true,
                        "schema": {
                            "$ref": "#/definitions/models.User"
                        }
                    }
                ],
                "responses": {
                    "201": {
                        "description": "Created",
                        "schema": {
                            "$ref": "#/definitions/models.User"
                        }
                    },
                    "400": {
                        "description": "Bad Request",
                        "schema": {
                            "$ref": "#/definitions/models.ErrorResponse"
                        }
                    },
                    "500": {
                        "description": "Internal Server Error",
                        "schema": {
                            "$ref": "#/definitions/models.ErrorResponse"
                        }
                    }
                }
            }
        },
        "/users/image": {
            "post": {
                "description": "Create a new user with image",
                "consumes": [
                    "multipart/form-data"
                ],
                "produces": [
                    "application/json"
                ],
                "tags": [
                    "users"
                ],
                "parameters": [
                    {
                        "description": "User details",
                        "name": "input",
                        "in": "body",
                        "required": true,
                        "schema": {
                            "$ref": "#/definitions/models.User"
                        }
                    }
                ],
                "responses": {
                    "201": {
                        "description": "Created",
                        "schema": {
                            "$ref": "#/definitions/models.User"
                        }
                    },
                    "400": {
                        "description": "Bad Request",
                        "schema": {
                            "$ref": "#/definitions/models.ErrorResponse"
                        }
                    },
                    "500": {
                        "description": "Internal Server Error",
                        "schema": {
                            "$ref": "#/definitions/models.ErrorResponse"
                        }
                    }
                }
            }
        },
        "/users/{id}": {
            "get": {
                "description": "Get a user by its ID",
                "produces": [
                    "application/json"
                ],
                "tags": [
                    "users"
                ],
                "parameters": [
                    {
                        "type": "string",
                        "description": "User ID",
                        "name": "id",
                        "in": "path",
                        "required": true
                    }
                ],
                "responses": {
                    "200": {
                        "description": "OK",
                        "schema": {
                            "$ref": "#/definitions/models.User"
                        }
                    },
                    "400": {
                        "description": "Bad Request",
                        "schema": {
                            "$ref": "#/definitions/models.ErrorResponse"
                        }
                    },
                    "500": {
                        "description": "Internal Server Error",
                        "schema": {
                            "$ref": "#/definitions/models.ErrorResponse"
                        }
                    }
                }
            },
            "put": {
                "description": "Update a user by its ID",
                "consumes": [
                    "application/json"
                ],
                "produces": [
                    "application/json"
                ],
                "tags": [
                    "users"
                ],
                "parameters": [
                    {
                        "type": "string",
                        "description": "User ID",
                        "name": "id",
                        "in": "path",
                        "required": true
                    },
                    {
                        "description": "Updated user details",
                        "name": "input",
                        "in": "body",
                        "required": true,
                        "schema": {
                            "$ref": "#/definitions/models.User"
                        }
                    }
                ],
                "responses": {
                    "200": {
                        "description": "OK"
                    },
                    "400": {
                        "description": "Bad Request",
                        "schema": {
                            "$ref": "#/definitions/models.ErrorResponse"
                        }
                    },
                    "500": {
                        "description": "Internal Server Error",
                        "schema": {
                            "$ref": "#/definitions/models.ErrorResponse"
                        }
                    }
                }
            },
            "delete": {
                "description": "Delete a user by its ID",
                "tags": [
                    "users"
                ],
                "parameters": [
                    {
                        "type": "string",
                        "description": "User ID",
                        "name": "id",
                        "in": "path",
                        "required": true
                    }
                ],
                "responses": {
                    "200": {
                        "description": "OK"
                    },
                    "400": {
                        "description": "Bad Request",
                        "schema": {
                            "$ref": "#/definitions/models.ErrorResponse"
                        }
                    },
                    "500": {
                        "description": "Internal Server Error",
                        "schema": {
                            "$ref": "#/definitions/models.ErrorResponse"
                        }
                    }
                }
            }
        },
        "/users/{id}/follow/{fid}": {
            "post": {
                "description": "Follow a user",
                "consumes": [
                    "application/json"
                ],
                "produces": [
                    "application/json"
                ],
                "tags": [
                    "users"
                ],
                "parameters": [
                    {
                        "type": "string",
                        "description": "User ID",
                        "name": "id",
                        "in": "path",
                        "required": true
                    },
                    {
                        "type": "string",
                        "description": "Following user ID",
                        "name": "fid",
                        "in": "path",
                        "required": true
                    }
                ],
                "responses": {
                    "201": {
                        "description": "Created",
                        "schema": {
                            "$ref": "#/definitions/models.Following"
                        }
                    },
                    "400": {
                        "description": "Bad Request",
                        "schema": {
                            "$ref": "#/definitions/models.ErrorResponse"
                        }
                    },
                    "500": {
                        "description": "Internal Server Error",
                        "schema": {
                            "$ref": "#/definitions/models.ErrorResponse"
                        }
                    }
                }
            }
        },
        "/users/{id}/followers": {
            "get": {
                "description": "Get followers of a user",
                "produces": [
                    "application/json"
                ],
                "tags": [
                    "users"
                ],
                "parameters": [
                    {
                        "type": "string",
                        "description": "User ID",
                        "name": "id",
                        "in": "path",
                        "required": true
                    }
                ],
                "responses": {
                    "200": {
                        "description": "OK",
                        "schema": {
                            "type": "array",
                            "items": {
                                "$ref": "#/definitions/models.User"
                            }
                        }
                    },
                    "400": {
                        "description": "Bad Request",
                        "schema": {
                            "$ref": "#/definitions/models.ErrorResponse"
                        }
                    },
                    "500": {
                        "description": "Internal Server Error",
                        "schema": {
                            "$ref": "#/definitions/models.ErrorResponse"
                        }
                    }
                }
            }
        },
        "/users/{id}/follows": {
            "get": {
                "description": "Get users followed by a user",
                "produces": [
                    "application/json"
                ],
                "tags": [
                    "users"
                ],
                "parameters": [
                    {
                        "type": "string",
                        "description": "User ID",
                        "name": "id",
                        "in": "path",
                        "required": true
                    }
                ],
                "responses": {
                    "200": {
                        "description": "OK",
                        "schema": {
                            "type": "array",
                            "items": {
                                "$ref": "#/definitions/models.User"
                            }
                        }
                    },
                    "400": {
                        "description": "Bad Request",
                        "schema": {
                            "$ref": "#/definitions/models.ErrorResponse"
                        }
                    },
                    "500": {
                        "description": "Internal Server Error",
                        "schema": {
                            "$ref": "#/definitions/models.ErrorResponse"
                        }
                    }
                }
            }
        }
    },
    "definitions": {
        "auth.LoginRequest": {
            "type": "object",
            "properties": {
                "password": {
                    "type": "string"
                },
                "username": {
                    "type": "string"
                }
            }
        },
        "models.Books": {
            "type": "object"
        },
        "models.Comment": {
            "type": "object",
            "properties": {
                "body": {
                    "type": "string"
                },
                "id_": {
                    "type": "string"
                },
                "imageUrl": {
                    "type": "string"
                },
                "postID": {
                    "type": "string"
                },
                "userID": {
                    "type": "string"
                }
            }
        },
        "models.Dormitory": {
            "type": "object",
            "properties": {
                "course": {
                    "type": "integer"
                },
                "faculty": {
                    "type": "string"
                },
                "gender": {
                    "type": "string"
                },
                "name": {
                    "type": "string"
                }
            }
        },
        "models.ErrorResponse": {
            "type": "object",
            "properties": {
                "code": {
                    "type": "string"
                },
                "message": {
                    "type": "string"
                }
            }
        },
        "models.Following": {
            "type": "object",
            "properties": {
                "followingID": {
                    "type": "string"
                },
                "userID": {
                    "type": "string"
                }
            }
        },
        "models.Housing": {
            "type": "object"
        },
        "models.LostAndFoundItem": {
            "type": "object"
        },
        "models.Post": {
            "type": "object",
            "properties": {
                "body": {
                    "type": "string"
                },
                "id_": {
                    "type": "integer"
                },
                "imageUrl": {
                    "type": "string"
                },
                "status": {
                    "type": "string"
                },
                "title": {
                    "type": "string"
                },
                "userID": {
                    "type": "string"
                }
            }
        },
        "models.User": {
            "type": "object",
            "properties": {
                "ID_": {
                    "type": "string"
                },
                "email": {
                    "type": "string"
                },
                "imageUrl": {
                    "type": "string"
                },
                "name": {
                    "type": "string"
                },
                "password": {
                    "type": "string"
                },
                "surname": {
                    "type": "string"
                },
                "username": {
                    "type": "string"
                }
            }
        }
    },
    "securityDefinitions": {
        "ApiKeyAuth": {
            "type": "apiKey",
            "name": "Authorization",
            "in": "header"
        }
    }
}